Jeff 0
Jeff 0
Jeff 0
Jeff 0
Jeff 0
Jeff 0
Jeff 0
Jeff 0
Jeff 0
Jeff 0
Jeff 0
Jeff 0
Jeff 0
Jeff 0
Jeff 0
Jeff 0
Jeff 0
Jeff 0
Jeff 0
Jeff 0
Jeff 0
Jeff 0
Jeff 0
Jeff 0
John 0
John 0
John 0
John 0
John 0
John 0
John 0
John 0
John 0
John 0
John 0
John 0
John 0
John 0
John 0
John 0
John 0
John 0
John 0
John 0
John 0
John 0
John 0
John 0